Project 1: Exploratory Data Analysis
…
drinks <- drinks %>% pivot_longer(cols = c(beer_servings:wine_servings), 
    names_to = "Alcohol_Type", values_to = "Servings") %>% separate(Alcohol_Type, 
    into = c("Alcohol_Type", "servingsname")) %>% select(-servingsname)

In this step, I downloaded the two datests and tidyd the drinks dataset before joining it in the next step. I used pivot_longer to condense the 3 columns “beer_servings”, “spirit_servings” and “wine_servings” (which each had numerical entries of servings per person for each country) into two columns, “Alcohol_Type” (categorical) and “Servings” (numeric).

Side Note: As you can see from the code when I downloaded the “countries_of_the_world” dataset, I dropped several variables. I did this to get rid of extraneous data that was unnecessary and that I didn’t plan on using, just to clean up the dataset before I started the project. This data didn’t pertain to any of the data that I kept, and thus couldn’t have been tidyd into a more usable form.

Joining

countrydata <- countries_of_the_world %>% inner_join(drinks, 
    by = c(Country = "country"))
countrydata

## # A tibble: 522 x 13
##    Country  Region Population `Area (sq. mi.)` `Pop. Density (… `Infant mortali…
##    <chr>    <chr>       <dbl>            <dbl>            <dbl>            <dbl>
##  1 Afghani… ASIA …   31056997           647500             48             163.  
##  2 Afghani… ASIA …   31056997           647500             48             163.  
##  3 Afghani… ASIA …   31056997           647500             48             163.  
##  4 Albania  EASTE…    3581655            28748            125.             21.5 
##  5 Albania  EASTE…    3581655            28748            125.             21.5 
##  6 Albania  EASTE…    3581655            28748            125.             21.5 
##  7 Algeria  NORTH…   32930091          2381740             13.8            31   
##  8 Algeria  NORTH…   32930091          2381740             13.8            31   
##  9 Algeria  NORTH…   32930091          2381740             13.8            31   
## 10 Andorra  WESTE…      71201              468            152.              4.05
## # … with 512 more rows, and 7 more variables: GDP ($ per capita) <dbl>,
## #   Literacy (%) <dbl>, Birthrate <dbl>, Deathrate <dbl>,
## #   total_litres_of_pure_alcohol <dbl>, Alcohol_Type <chr>, Servings <int>
…
